﻿<svg width="201" height="56" viewBox="0 0 201 56" fill="none" xmlns="http://www.w3.org/2000/svg">
  <path xmlns="http://www.w3.org/2000/svg" d="M0 1.8855H43.9929V43.993H0V1.8855Z" fill="#1E4C7B" />
  <path xmlns="http://www.w3.org/2000/svg" d="M2.48223 1.18993L21.5749 24.9584L41.4469 1.18993H2.48223Z" fill="#D31412"
    stroke="white" stroke-width="2.37994" />
  <path xmlns="http://www.w3.org/2000/svg" d="M26.5467 40.2947L4.74612 40.3723L4.7461 14.2217L26.5467 40.2947Z"
    fill="white" />
  <path xmlns="http://www.w3.org/2000/svg"
    d="M65.8777 44.7211H61.9313V31.1554H55.8884V44.7211H51.942V27.4557H65.8777V44.7211ZM74.1433 38.8509V44.7211H70.1969V27.4557C70.9533 27.4557 71.7837 27.4475 72.6881 27.431C73.6089 27.4146 74.5379 27.4064 75.4752 27.4064C77.9088 27.4064 79.6847 27.949 80.8028 29.0343C81.9045 30.0866 82.4554 31.4514 82.4554 33.1286C82.4554 34.7401 81.8716 36.1131 80.7041 37.2477C79.5367 38.3658 77.991 38.9249 76.0672 38.9249C75.2121 38.9249 74.5708 38.9002 74.1433 38.8509ZM75.8698 31.1061C75.8534 31.1061 75.7794 31.1143 75.6478 31.1308C75.5163 31.1308 75.3108 31.139 75.0312 31.1554C74.7517 31.1554 74.4557 31.1554 74.1433 31.1554V35.1018C74.8339 35.184 75.4341 35.2252 75.9438 35.2252C76.618 35.2252 77.1688 35.0525 77.5964 34.7072C78.0403 34.3454 78.2623 33.811 78.2623 33.104C78.2623 31.7721 77.4648 31.1061 75.8698 31.1061ZM84.3041 36.0884C84.3041 33.5397 85.1509 31.4185 86.8445 29.7249C88.5546 28.0148 90.7663 27.1597 93.4794 27.1597C96.1761 27.1597 98.3713 27.9737 100.065 29.6016C101.791 31.2294 102.655 33.3917 102.655 36.0884C102.655 38.6865 101.783 40.8241 100.04 42.5013C98.3137 44.1785 96.1268 45.0171 93.4794 45.0171C90.7992 45.0171 88.5958 44.2032 86.8692 42.5753C85.1591 40.9474 84.3041 38.7851 84.3041 36.0884ZM88.4971 36.0884C88.4971 37.5519 88.9822 38.7933 89.9523 39.8128C90.906 40.8159 92.0817 41.3174 93.4794 41.3174C95.058 41.3174 96.283 40.8323 97.1545 39.8621C98.026 38.8591 98.4617 37.6012 98.4617 36.0884C98.4617 34.5263 97.9849 33.2684 97.0311 32.3147C96.061 31.3445 94.8771 30.8595 93.4794 30.8595C92.0324 30.8595 90.8403 31.3445 89.903 32.3147C88.9657 33.2848 88.4971 34.5428 88.4971 36.0884ZM115.881 44.9184H111.934V42.6C109.599 42.5835 107.733 41.9833 106.335 40.7994C104.954 39.6155 104.263 37.963 104.263 35.8418C104.263 33.737 104.962 32.1092 106.36 30.9581C107.758 29.7907 109.616 29.1658 111.934 29.0836V27.2584H115.881V29.0836C118.199 29.1329 120.057 29.7578 121.455 30.9581C122.885 32.1749 123.601 33.8028 123.601 35.8418C123.601 37.9465 122.894 39.5908 121.479 40.7747C120.065 41.9751 118.199 42.5835 115.881 42.6V44.9184ZM119.408 35.8418C119.408 34.9045 119.112 34.1563 118.52 33.5973C117.944 33.0382 117.064 32.7422 115.881 32.7093V38.9742C117.13 38.9578 118.026 38.6947 118.569 38.1849C119.128 37.6752 119.408 36.8941 119.408 35.8418ZM108.456 35.8418C108.456 37.8807 109.616 38.9249 111.934 38.9742V32.7093C110.783 32.7422 109.912 33.0382 109.32 33.5973C108.744 34.1563 108.456 34.9045 108.456 35.8418ZM137.53 33.9919L129.884 44.7211H126.431V27.4557H130.377V38.1849L138.023 27.4557H141.476V44.7211H137.53V33.9919ZM159.433 44.7211H155.487V31.1554H151.689L151.319 34.4112C150.973 37.4039 150.48 39.6977 149.839 41.2927C149.214 42.8713 148.449 43.899 147.545 44.3758C146.657 44.8527 145.498 44.9678 144.067 44.7211L144.141 40.7747C144.503 40.8405 144.799 40.8405 145.029 40.7747C145.276 40.6925 145.539 40.487 145.818 40.1581C146.098 39.8128 146.353 39.2949 146.583 38.6042C147.093 37.1243 147.479 34.5592 147.742 30.9088L147.989 27.4557H159.433V44.7211ZM168.89 36.4584C168.709 36.4584 168.314 36.4995 167.706 36.5817V40.9721C168.232 41.0378 168.619 41.0707 168.865 41.0707C170.674 41.0707 171.578 40.2732 171.578 38.6782C171.578 37.1983 170.682 36.4584 168.89 36.4584ZM163.76 27.4557H167.706V32.8573C168.183 32.7915 168.693 32.7587 169.235 32.7587C171.389 32.7587 173.017 33.2684 174.119 34.2879C175.221 35.2909 175.771 36.7215 175.771 38.5796C175.771 40.487 175.122 41.9998 173.823 43.1179C172.54 44.2196 170.732 44.7705 168.397 44.7705C167.377 44.7705 166.506 44.7622 165.782 44.7458C165.075 44.7294 164.401 44.7211 163.76 44.7211V27.4557Z"
    fill="#1E4C7B" />
  <path xmlns="http://www.w3.org/2000/svg" d="M17.0658 40.3275L38.3342 40.3275L38.3343 14.2627L17.0658 40.3275Z"
    fill="white" />
  <path xmlns="http://www.w3.org/2000/svg"
    d="M55.8884 19.7211H51.942V2.45571H55.8884V9.0659H58.0589C58.4864 6.99405 59.4484 5.33328 60.9447 4.0836C62.441 2.80102 64.3073 2.15973 66.5436 2.15973C69.2074 2.15973 71.3615 2.97368 73.0058 4.60156C74.6501 6.19655 75.4723 8.35884 75.4723 11.0884C75.4723 13.6865 74.6419 15.8323 72.9812 17.526C71.3204 19.1867 69.1745 20.0171 66.5436 20.0171C64.3731 20.0171 62.4904 19.3676 60.8954 18.0686C59.3004 16.7696 58.3302 15.0019 57.9849 12.7656H55.8884V19.7211ZM62.0546 11.0884C62.0546 12.5683 62.5068 13.8098 63.4112 14.8128C64.3156 15.8159 65.4008 16.3174 66.6669 16.3174C68.1962 16.3174 69.3472 15.8487 70.12 14.9115C70.8929 13.9742 71.2793 12.6999 71.2793 11.0884C71.2793 9.50987 70.86 8.24374 70.0214 7.29003C69.1828 6.33632 68.0646 5.85947 66.6669 5.85947C65.335 5.85947 64.2333 6.34454 63.3618 7.31469C62.4904 8.28485 62.0546 9.54276 62.0546 11.0884ZM82.5014 19.7211H78.555V2.45571H88.421V6.15545H82.5014V19.7211Z"
    fill="#D31412" />`
</svg>